{
  "project_info": {
    "project_number": "1040263575439",
    "firebase_url": "https://health-pa-e20ec.firebaseio.com",
    "project_id": "health-pa-e20ec",
    "storage_bucket": "health-pa-e20ec.appspot.com"
  },
  "client": [
    {
      "client_info": {
        "mobilesdk_app_id": "1:1040263575439:android:8599476a065cb33b203dfa",
        "android_client_info": {
          "package_name": "th.muangthai.PA"
        }
      },
      "oauth_client": [
        {
          "client_id": "1040263575439-tf4k5utn3qg4ntht3dgo304bg4luien1.apps.googleusercontent.com",
          "client_type": 3
        }
      ],
      "api_key": [
        {
          "current_key": "AIzaSyCWiVW4dloaAPRsmjEsZ8TZYBGtaPW058Q"
        }
      ],
      "services": {
        "appinvite_service": {
          "other_platform_oauth_client": [
            {
              "client_id": "1040263575439-tf4k5utn3qg4ntht3dgo304bg4luien1.apps.googleusercontent.com",
              "client_type": 3
            }
          ]
        }
      }
    }
  ],
  "configuration_version": "1"
}